{
  "title" : "Workbook of Computational and Numerical Choreography",
  "author" : "Sejo Vega-Cebrián",
  "translator" : "Melissa Orozco Salazar",
  "destination" : "build/:build",
  "builds" : [
    {
      "format" : "html",
      "layout" : "layouts/original.html",
      "stylesheets" : {
        "files" : ["stylesheets/html.scss"]
      },
      "destination" : "build/",
      "licenselink" : "https://creativecommons.org/licenses/by-sa/4.0/",
      "files" : [
	"content/index.md"
      ]
    },
    {
      "format" : "html",
      "layout" : "layouts/html.html",
      "stylesheets" : {
        "files" : ["stylesheets/html.scss"]
      },
      "javascripts" : {
	"compress" : true,
        "files" : ["javascripts/scripts.js"]
      },
      "destination" : "build/es",
      "title" : "Coreografía Computacional y Numérica",
      "toctitle" : "Índice",
      "licenselink" : "https://creativecommons.org/licenses/by-sa/4.0/deed.es_ES",
      "files" : [
	"content/es/index.md",
	{
		"label" : "Sistemas rígidos",
		"files" : [
			"content/es/factorial.md",
			"content/es/mux.md"
		]
	}
      ]
    },
    {
      "format" : "html",
      "layout" : "layouts/html.html",
      "stylesheets" : {
        "files" : ["stylesheets/html.scss"]
      },
      "javascripts" : {
	"compress" : true,
        "files" : ["javascripts/scripts.js"]
      },
      "destination" : "build/en",
      "toctitle" : "Table of Contents",
      "licenselink" : "https://creativecommons.org/licenses/by-sa/4.0/",
      "files" : [
	"content/en/index.md"
      ]
    } 
  ]
}
